Marker:,Sarah Beecham
Total mark:,8.67 (out of 10)

,,Note 1: You could only get marks for either 'Population' or 'Problem'. So it is normal that one of the two section will have 0 marks
,,"Note 2: If you have a mark in 'All PICO elements correct!' there will be no marks in any of the other PICO-related sections.
 This means that you have full marks for all PICO elements even though the individual section show 0 marks - ignore those entries"
Element,Mark,Comment
Report has Research Question?,0.9,
Type ('early'/'late') was specified?,0.35,
Context,,
Context labelled?,0.66,
Context correct?,0.67,
Context explained?,0.67,Need a succinct explanation of what the context is.
Population,,
Population labelled?,0.0,The >population< description has not been identified clearly as such. We asked you to either answer the problem OR the population.  Not both.
Population explained?,0.97,There is some evidence that you identify the population correctly within this block of text.
Problem,,
Problem labelled?,0.0,The >problem< has not been labelled explicitely! 
Problem correct?,0.0,The problem has not been correctly described. 
Problem explained?,0.0,The problem has not been explained in sufficient detail. 
Intervention,,
Intervention labelled?,0.35,
Intervention correct?,0.48,
Intervention explained?,0.48,
Comparison,,
Comparison labelled?,0.35,
Comparison correct?,0.48,
Comparison explained?,0.0,The >comparison< has not been elaborated on in sufficient detail. How are you going to compare different techniques across the literature?  Not sure what you mean that this comparison 'is done'?
Outcome,,
Outcome labelled?,0.35,
Outcome correct?,0.48,
Outcome explained?,0.48,
Spelling correct?,0.5,
Grammar correct?,0.0,There are grammatical errors in the report. 
Is question Comp. Sci. question?,0.5,
All Pico elements correct!,0.0, 
General comments,,"Regarding your suggestion that this is an early research question, I would agree with you, as you are exploring the literature to find a gap.  However when it comes to the intervention and comparison, your text reads as if your will be performing the experiment.  You cannot do both here - explore the literature to find different types of neural networks used in voice recognition, and run an experiment.  One follows on from the other.  Therefore in this instance, it is unlikely that you can do a comparison, unless the literature (someone else who report the experiment) covers the comparison."
